{
  "version": 3,
  "projects": {},
  "selectedDraftVaultPath": "DesCourants/Index.md",
  "userScriptFolder": null,
  "sessionStorage": "data",
  "sessions": [
    {
      "start": "2023-07-03T09:24:37.131Z",
      "total": 0,
      "drafts": {
        "DesCourants/Index.md": {
          "total": 0,
          "scenes": {
            "L'Homme": 0,
            "L'Empire": 0,
            "Le Frère": 0,
            "L'Ingénieur": 0,
            "L'Ouvrier": 0,
            "Le Courant": 0,
            "Les Territoires": 0,
            "Le Feu": 0,
            "La Maison, la Femme et le Fils": 0,
            "La Maladie": 0,
            "La Mort": 0,
            "Fin - La Lumière": 0
          }
        }
      }
    },
    {
      "start": "2023-06-16T19:23:27.912Z",
      "total": 2,
      "drafts": {
        "DesCourants/Index.md": {
          "total": 2,
          "scenes": {
            "L'Homme": 1,
            "L'Empire": 0,
            "Le Frère": 0,
            "L'Ouvrier": 0,
            "L'Ingénieur": 1,
            "Le Courant": 0,
            "Le Feu": 0,
            "La Maison, la Femme et le Fils": 0,
            "La Maladie": 0,
            "La Mort": 0,
            "Fin - La Lumière": 0
          }
        }
      }
    },
    {
      "start": "2023-05-26T06:22:56.381Z",
      "total": 0,
      "drafts": {
        "DesCourants/Index.md": {
          "total": 0,
          "scenes": {
            "L'Homme": 0,
            "L'Empire": 0,
            "Le Frère": 0,
            "L'Ouvrier": 0,
            "L'Ingénieur": 0,
            "Le Mineur": 0,
            "Le Feu": 0,
            "La Maison, la Femme et le Fils": 0,
            "La Maladie": 0,
            "La Mort": 0,
            "Fin - La Lumière": 0
          }
        }
      }
    },
    {
      "start": "2023-05-17T19:53:17.143Z",
      "total": 0,
      "drafts": {
        "DesCourants/Index.md": {
          "total": 0,
          "scenes": {
            "L'Homme": 0,
            "L'Empire": 0,
            "Le Frère": 0,
            "L'Ouvrier": 0,
            "L'Ingénieur": 0,
            "Le Mineur": 0,
            "Le Feu": 0,
            "La Maison, la Femme et le Fils": 0,
            "La Maladie": 0,
            "La Mort": 0,
            "Fin - La Lumière": 0
          }
        }
      }
    },
    {
      "start": "2023-05-16T16:51:27.295Z",
      "total": 695,
      "drafts": {
        "DesCourants/Index.md": {
          "total": 695,
          "scenes": {
            "L'Homme": 0,
            "L'Empire": 0,
            "Le Frère": 0,
            "L'Ouvrier": 0,
            "L'Ingénieur": 0,
            "Le Mineur": 0,
            "Le Feu": 695,
            "La Maison, la Femme et le Fils": 0,
            "La Maladie": 0,
            "La Mort": 0,
            "Fin - La Lumière": 0
          }
        }
      }
    },
    {
      "start": "2023-05-14T16:50:23.716Z",
      "total": 0,
      "drafts": {
        "DesCourants/Index.md": {
          "total": 0,
          "scenes": {
            "L'Homme": 0,
            "L'Empire": 0,
            "Le Frère": 0,
            "L'Ouvrier": 0,
            "L'Ingénieur": 0,
            "Le Mineur": 0,
            "Le Feu": 0,
            "La Maison, la Femme et le Fils": 0,
            "La Maladie": 0,
            "La Mort": 0,
            "Fin - La Lumière": 0
          }
        }
      }
    },
    {
      "start": "2023-05-13T07:16:34.647Z",
      "total": 0,
      "drafts": {
        "DesCourants/Index.md": {
          "total": 0,
          "scenes": {
            "L'Homme": 0,
            "L'Empire": 0,
            "Le Frère": 0,
            "L'Ouvrier": 0,
            "L'Ingénieur": 0,
            "Le Mineur": 0,
            "Le Feu": 0,
            "La Maison, la Femme et le Fils": 0,
            "La Maladie": 0,
            "La Mort": 0,
            "Fin - La Lumière": 0
          }
        }
      }
    },
    {
      "start": "2023-05-12T18:50:50.856Z",
      "total": 366,
      "drafts": {
        "DesCourants/Index.md": {
          "total": 366,
          "scenes": {
            "L'Homme": 0,
            "L'Empire": 0,
            "Le Frère": 0,
            "L'Ouvrier": 0,
            "L'Ingénieur": 0,
            "Le Mineur": 0,
            "Le Feu": 366,
            "La Maison, la Femme et le Fils": 0,
            "La Maladie": 0,
            "La Mort": 0,
            "Fin - La Lumière": 0
          }
        }
      }
    },
    {
      "start": "2023-04-27T18:29:22.562Z",
      "total": 0,
      "drafts": {
        "DesCourants/Index.md": {
          "total": 0,
          "scenes": {
            "L'Homme": 0,
            "L'Empire": 0,
            "Le Frère": 0,
            "L'Ouvrier": 0,
            "L'Ingénieur": 0,
            "Le Mineur": 0,
            "Le Feu": 0,
            "La Maison, la Femme et le Fils": 0,
            "La Maladie": 0,
            "La Mort": 0,
            "Fin - La Lumière": 0
          }
        }
      }
    },
    {
      "start": "2023-04-26T17:21:17.816Z",
      "total": 0,
      "drafts": {
        "DesCourants/Index.md": {
          "total": 0,
          "scenes": {
            "L'Homme": 0,
            "L'Empire": 0,
            "Le Frère": 0,
            "L'Ouvrier": 0,
            "L'Ingénieur": 0,
            "Le Mineur": 0,
            "Le Feu": 0,
            "La Maison, la Femme et le Fils": 0,
            "La Maladie": 0,
            "La Mort": 0,
            "Fin - La Lumière": 0
          }
        }
      }
    },
    {
      "start": "2023-04-23T06:28:34.980Z",
      "total": 0,
      "drafts": {
        "DesCourants/Index.md": {
          "total": 0,
          "scenes": {
            "L'Homme": 0,
            "L'Empire": 0,
            "Le Frère": 0,
            "L'Ouvrier": 0,
            "L'Ingénieur": 0,
            "Le Mineur": 0,
            "Le Feu": 0,
            "La Maison, la Femme et le Fils": 0,
            "La Maladie": 0,
            "La Mort": 0,
            "Fin - La Lumière": 0
          }
        }
      }
    },
    {
      "start": "2023-04-22T07:47:00.993Z",
      "total": 0,
      "drafts": {
        "DesCourants/Index.md": {
          "total": 0,
          "scenes": {
            "L'Homme": 0,
            "L'Empire": 0,
            "Le Frère": 0,
            "L'Ouvrier": 0,
            "L'Ingénieur": 0,
            "Le Mineur": 0,
            "Le Feu": 0,
            "La Maison, la Femme et le Fils": 0,
            "La Maladie": 0,
            "La Mort": 0,
            "Fin - La Lumière": 0
          }
        }
      }
    },
    {
      "start": "2023-04-21T05:47:19.104Z",
      "total": 0,
      "drafts": {
        "DesCourants/Index.md": {
          "total": 0,
          "scenes": {
            "L'Homme": 0,
            "L'Empire": 0,
            "Le Frère": 0,
            "L'Ouvrier": 0,
            "L'Ingénieur": 0,
            "Le Mineur": 0,
            "Le Feu": 0,
            "La Maison, la Femme et le Fils": 0,
            "La Maladie": 0,
            "La Mort": 0,
            "Fin - La Lumière": 0
          }
        }
      }
    },
    {
      "start": "2023-04-20T15:48:27.058Z",
      "total": 0,
      "drafts": {
        "DesCourants/Index.md": {
          "total": 0,
          "scenes": {
            "L'Homme": 0,
            "L'Empire": 0,
            "Le Frère": 0,
            "L'Ouvrier": 0,
            "L'Ingénieur": 0,
            "Le Mineur": 0,
            "Le Feu": 0,
            "La Maison, la Femme et le Fils": 0,
            "La Maladie": 0,
            "La Mort": 0,
            "Fin - La Lumière": 0
          }
        }
      }
    },
    {
      "start": "2023-04-18T17:15:45.209Z",
      "total": 31,
      "drafts": {
        "DesCourants/Index.md": {
          "total": 31,
          "scenes": {
            "L'Homme": 0,
            "L'Empire": 0,
            "Le Frère": 0,
            "L'Ouvrier": 0,
            "L'Ingénieur": 0,
            "Le Mineur": 0,
            "Le Feu": 0,
            "La Maison, la Femme et le Fils": 31,
            "La Maladie": 0,
            "La Mort": 0,
            "Fin - La Lumière": 0
          }
        }
      }
    },
    {
      "start": "2023-04-17T06:34:02.135Z",
      "total": 0,
      "drafts": {
        "Adam/Index.md": {
          "total": 0,
          "scenes": {
            "L'Homme": 0,
            "L'Empire": 0,
            "Le Frère": 0,
            "L'Ouvrier": 0,
            "L'Ingénieur": 0,
            "Le Mineur": 0,
            "La Maison, la Femme et le Fils": 0,
            "La Maladie": 0
          }
        },
        "Adam/DesCourants/Index.md": {
          "total": 0,
          "scenes": {
            "Des Courants": 0,
            "Fin - La Lumière": 0
          }
        },
        "Adam/DesCourants/Index 1.md": {
          "total": 0,
          "scenes": {
            "L'Homme": 0,
            "L'Empire": 0,
            "Le Frère": 0,
            "L'Ouvrier": 0,
            "L'Ingénieur": 0,
            "Le Mineur": 0,
            "La Maison, la Femme et le Fils": 0,
            "La Maladie": 0
          }
        },
        "DesCourants/Index.md": {
          "total": 0,
          "scenes": {
            "L'Homme": 0,
            "L'Empire": 0,
            "Le Frère": 0,
            "L'Ouvrier": 0,
            "L'Ingénieur": 0,
            "Le Mineur": 0,
            "Le Feu": 0,
            "La Maison, la Femme et le Fils": 0,
            "La Maladie": 0,
            "La Mort": 0,
            "Fin - La Lumière": 0
          }
        },
        "DesCourants/Index 1.md": {
          "total": 0,
          "scenes": {
            "L'Homme": 0,
            "L'Empire": 0,
            "Le Frère": 0,
            "L'Ouvrier": 0,
            "L'Ingénieur": 0,
            "Le Mineur": 0,
            "La Maison, la Femme et le Fils": 0,
            "La Maladie": 0
          }
        }
      }
    }
  ],
  "showWordCountInStatusBar": true,
  "startNewSessionEachDay": true,
  "sessionGoal": 500,
  "applyGoalTo": "all",
  "notifyOnGoal": true,
  "countDeletionsForGoal": false,
  "keepSessionCount": 30,
  "sessionFile": "longform-sessions.json",
  "numberScenes": false,
  "workflows": {
    "Default Workflow": {
      "name": "Default Workflow",
      "description": "A starter workflow. Feel free to edit, rename, or delete it and create your own.",
      "steps": [
        {
          "id": "strip-frontmatter",
          "optionValues": {}
        },
        {
          "id": "remove-links",
          "optionValues": {
            "remove-wikilinks": true,
            "remove-external-links": true
          }
        },
        {
          "id": "prepend-title",
          "optionValues": {
            "format": "$3{#} $1",
            "separator": "\n\n"
          }
        },
        {
          "id": "concatenate-text",
          "optionValues": {
            "separator": "\\n\\n---\\n\\n"
          }
        },
        {
          "id": "write-to-note",
          "optionValues": {
            "target": "Manuscript.md",
            "open-after": true
          }
        }
      ]
    }
  }
}